vti_encoding:SR|utf8-nl
vti_timelastmodified:TR|14 Nov 2003 20:11:00 -0000
vti_extenderversion:SR|5.0.2.2623
vti_lineageid:SR|{72A004F0-E3CB-4DA4-B146-B84510507916}
vti_cacheddtm:TX|14 Nov 2003 20:11:00 -0000
vti_filesize:IR|228
vti_backlinkinfo:VX|
